module git.phoebus.com.br/devops/apps-para-testes/go-s3

go 1.18

require (
	github.com/aws/aws-sdk-go-v2 v1.16.7
	github.com/aws/aws-sdk-go-v2/config v1.15.14
	github.com/aws/aws-sdk-go-v2/feature/s3/manager v1.11.20
	github.com/aws/aws-sdk-go-v2/service/s3 v1.27.1
)

require (
	github.com/aws/aws-sdk-go-v2/aws/protocol/eventstream v1.4.3 // indirect
	github.com/aws/aws-sdk-go-v2/credentials v1.12.9 // indirect
	github.com/aws/aws-sdk-go-v2/feature/ec2/imds v1.12.8 // indirect
	github.com/aws/aws-sdk-go-v2/internal/configsources v1.1.14 // indirect
	github.com/aws/aws-sdk-go-v2/internal/endpoints/v2 v2.4.8 // indirect
	github.com/aws/aws-sdk-go-v2/internal/ini v1.3.15 // indirect
	github.com/aws/aws-sdk-go-v2/internal/v4a v1.0.5 // indirect
	github.com/aws/aws-sdk-go-v2/service/internal/accept-encoding v1.9.3 // indirect
	github.com/aws/aws-sdk-go-v2/service/internal/checksum v1.1.9 // indirect
	github.com/aws/aws-sdk-go-v2/service/internal/presigned-url v1.9.8 // indirect
	github.com/aws/aws-sdk-go-v2/service/internal/s3shared v1.13.8 // indirect
	github.com/aws/aws-sdk-go-v2/service/sso v1.11.12 // indirect
	github.com/aws/aws-sdk-go-v2/service/sts v1.16.9 // indirect
	github.com/aws/smithy-go v1.12.0 // indirect
	github.com/jmespath/go-jmespath v0.4.0 // indirect
)
